1g_okTrVKavQbnj-R2BKbPsvGJJVF4uG40JipStoEqIQ,uk,Eng,SI,it,de,dk
Home1,Request a call,Request a call,Zahtevaj klic,Richieda una chiamata,Rückruf anfordern,Request a call
Home2,Experience a VIP service,Experience a VIP service,Doživite VIP storitev,Viva un'esperienza del servizio VIP,Erleben Sie einen VIP Service,Experience a VIP service
Home3,Menu,Menu,Meni,Menu,Menü,Menu
Home4,See more,See more,Prikaži več,Veda di più,Mehr sehen,See more

